{
  "images" : [
    {
      "idiom" : "universal",
      "filename" : "riders-count-bg@1x.PNG",
      "scale" : "1x"
    },
    {
      "idiom" : "universal",
      "filename" : "riders-count-bg@2x.PNG",
      "scale" : "2x"
    },
    {
      "idiom" : "universal",
      "filename" : "riders-count-bg@3x.PNG",
      "scale" : "3x"
    }
  ],
  "info" : {
    "version" : 1,
    "author" : "xcode"
  }
}