{
  "images" : [
    {
      "idiom" : "universal",
      "filename" : "description-icon-15x15.png",
      "scale" : "1x"
    },
    {
      "idiom" : "universal",
      "filename" : "description-icon-30x30.png",
      "scale" : "2x"
    },
    {
      "idiom" : "universal",
      "filename" : "description-icon-45x45.png",
      "scale" : "3x"
    }
  ],
  "info" : {
    "version" : 1,
    "author" : "xcode"
  }
}