{
  "images" : [
    {
      "idiom" : "universal",
      "filename" : "events-screen-320x568.png",
      "scale" : "1x"
    },
    {
      "idiom" : "universal",
      "filename" : "events-screen-640x1136.png",
      "scale" : "2x"
    },
    {
      "idiom" : "universal",
      "filename" : "events-screen-960x1704.png",
      "scale" : "3x"
    }
  ],
  "info" : {
    "version" : 1,
    "author" : "xcode"
  }
}