{
  "images" : [
    {
      "idiom" : "universal",
      "filename" : "feedback-50x50.png",
      "scale" : "1x"
    },
    {
      "idiom" : "universal",
      "filename" : "feedback-100x100.png",
      "scale" : "2x"
    },
    {
      "idiom" : "universal",
      "filename" : "feedback-150x150.png",
      "scale" : "3x"
    }
  ],
  "info" : {
    "version" : 1,
    "author" : "xcode"
  }
}