{
  "images" : [
    {
      "idiom" : "universal",
      "filename" : "private-icon_black-15-x-15.png",
      "scale" : "1x"
    },
    {
      "idiom" : "universal",
      "filename" : "private-icon_black-30-x-30.png",
      "scale" : "2x"
    },
    {
      "idiom" : "universal",
      "filename" : "private-icon_black-45-x-45.png",
      "scale" : "3x"
    }
  ],
  "info" : {
    "version" : 1,
    "author" : "xcode"
  }
}