{
  "images" : [
    {
      "idiom" : "universal",
      "filename" : "news-in-active-30x30.png",
      "scale" : "1x"
    },
    {
      "idiom" : "universal",
      "filename" : "news-in-active-60x60.png",
      "scale" : "2x"
    },
    {
      "idiom" : "universal",
      "filename" : "news-in-active-90x90.png",
      "scale" : "3x"
    }
  ],
  "info" : {
    "version" : 1,
    "author" : "xcode"
  }
}